Tidyverse
…
'data.frame':   34 obs. of  7 variables:
 $ group: Factor w/ 3 levels "Control","Diet",..: 1 1 1 1 1 1 1 1 1 1 ...
 $ wl1  : int  4 4 4 3 5 6 6 5 5 3 ...
 $ wl2  : int  3 4 3 2 3 5 5 4 4 3 ...
 $ wl3  : int  3 3 1 1 2 4 4 1 1 2 ...
 $ se1  : int  14 13 17 11 16 17 17 13 14 14 ...
 $ se2  : int  13 14 12 11 15 18 16 15 14 15 ...
 $ se3  : int  15 17 16 12 14 18 19 15 15 13 ...

Convierta los datos en formato largo “pivoteando” las columnas wl1, wl2 y wl3. La tabla debe quedar como se muestra a continuación:

# A tibble: 102 × 7
      id group     se1   se2   se3 month    wl
   <int> <fct>   <int> <int> <int> <dbl> <int>
 1     1 Control    14    13    15     1     4
 2     1 Control    14    13    15     2     3
 3     1 Control    14    13    15     3     3
 4     2 Control    13    14    17     1     4
 5     2 Control    13    14    17     2     4
 6     2 Control    13    14    17     3     3
 7     3 Control    17    12    16     1     4
 8     3 Control    17    12    16     2     3
 9     3 Control    17    12    16     3     1
10     4 Control    11    11    12     1     3
# … with 92 more rows
…
datl <- dat %>%
  mutate(
    id = 1:n(),
  ) %>%
  relocate(id, .before = group) %>%
  pivot_longer(cols = wl1:wl3, names_to = 'month', values_to = 'wl',
             names_prefix = 'wl') %>%
  mutate(month = as.numeric(month))
datl

Ej. 2: Datos longitudinales, dos variables

En el contexto de los datos del ejercicio anterior considere que se registraron dos variables respuestas para cada sujeto, la perdida de peso (wl1, wl2 y wl3) pero también un puntaje de autoestima (se1, se2 y se3). Pase los datos a formato largo de tal forma que la nueva tabla se vea como sigue:

# A tibble: 102 × 5
      id group   month    wl    se
   <int> <fct>   <dbl> <int> <int>
 1     1 Control     1     4    14
 2     1 Control     2     3    13
 3     1 Control     3     3    15
 4     2 Control     1     4    13
 5     2 Control     2     4    14
 6     2 Control     3     3    17
 7     3 Control     1     4    17
 8     3 Control     2     3    12
 9     3 Control     3     1    16
10     4 Control     1     3    11
# … with 92 more rows
…
